Yet Another Hierachical Time Series Extension and Expansion • yahtsee
…
There are two example datasets.

who_regions, containing region information from WHO database

who_regions
#> # A tibble: 110 × 4
#>    who_region who_subregion country     country_iso_code
#>    <chr>      <chr>         <chr>       <chr>           
#>  1 EMRO       EMRO          Afghanistan AFG             
#>  2 AFRO       AFRO-W        Algeria     DZA             
#>  3 AFRO       AFRO-W        Angola      AGO             
#>  4 PAHO       PAHO          Argentina   ARG             
#>  5 EURO       EURO          Armenia     ARM             
#>  6 EURO       EURO          Azerbaijan  AZE             
#>  7 SEARO      SEARO         Bangladesh  BGD             
#>  8 PAHO       PAHO          Belize      BLZ             
#>  9 AFRO       AFRO-C        Benin       BEN             
#> 10 SEARO      SEARO         Bhutan      BTN             
#> # … with 100 more rows

malaria_africa_ts - containing malaria prevalence data, extracted using the malariaAtlas R package - https://cran.r-project.org/web/packages/malariaAtlas/vignettes/overview.html

malaria_africa_ts
#> # A tsibble: 1,046 x 15 [1D]
#> # Key:       country [46]
#>    who_region who_subregion country date       month_num positive examined
#>    <fct>      <fct>         <fct>   <date>         <dbl>    <dbl>    <int>
#>  1 AFRO       AFRO-W        Angola  1989-06-01       120     15.8       50
#>  2 AFRO       AFRO-W        Angola  2005-11-01       372     82        111
#>  3 AFRO       AFRO-W        Angola  2006-04-01       300    102        197
#>  4 AFRO       AFRO-W        Angola  2006-11-01       384     41        347
#>  5 AFRO       AFRO-W        Angola  2006-12-01       396    173        734
#>  6 AFRO       AFRO-W        Angola  2007-01-01       276    216        828
#>  7 AFRO       AFRO-W        Angola  2007-02-01       288     42         71
#>  8 AFRO       AFRO-W        Angola  2007-03-01       300    119        448
#>  9 AFRO       AFRO-W        Angola  2011-01-01       324      1        239
#> 10 AFRO       AFRO-W        Angola  2011-02-01       336    148       1132
#> # … with 1,036 more rows, and 8 more variables: pr <dbl>, avg_lower_age <dbl>,
#> #   continent_id <fct>, country_id <fct>, year <int>, month <int>,
#> #   avg_upper_age <dbl>, species <fct>
…
